{
  "conditions": [
    {
      "type": "betterwithengineering:config"
    }
  ],
  "result": {
    "item": "immersiveengineering:wooden_device0",
    "data": 1
  },
  "type": "forge:ore_shaped",
  "pattern": [
    "mmm",
    "s s",
    "sss"
  ],
  "key": {
    "m": {
      "item": "#mouldingTreatedWood"
    },
    "s": {
      "item": "#sidingTreatedWood"
    }
  }
}
